%YAML 1.1
%TAG !u! tag:unity3d.com,2011:
--- !u!21 &2100000
Material:
  serializedVersion: 6
  m_ObjectHideFlags: 0
  m_CorrespondingSourceObject: {fileID: 0}
  m_PrefabInstance: {fileID: 0}
  m_PrefabAsset: {fileID: 0}
  m_Name: GrassFar2
  m_Shader: {fileID: 4800000, guid: 97b122c8496f943d08230db7463388f4, type: 3}
  m_ShaderKeywords: 
  m_LightmapFlags: 4
  m_EnableInstancingVariants: 1
  m_DoubleSidedGI: 0
  m_CustomRenderQueue: -1
  stringTagMap: {}
  disabledShaderPasses: []
  m_SavedProperties:
    serializedVersion: 3
    m_TexEnvs:
    - _BaseMap:
        m_Texture: {fileID: 2800000, guid: d6a350dc059d24e16bace4b07f1a3abd, type: 3}
        m_Scale: {x: 1, y: 1}
        m_Offset: {x: 0, y: 0}
    - _BumpMap:
        m_Texture: {fileID: 0}
        m_Scale: {x: 1, y: 1}
        m_Offset: {x: 0, y: 0}
    - _DetailAlbedoMap:
        m_Texture: {fileID: 0}
        m_Scale: {x: 1, y: 1}
        m_Offset: {x: 0, y: 0}
    - _DetailMask:
        m_Texture: {fileID: 0}
        m_Scale: {x: 1, y: 1}
        m_Offset: {x: 0, y: 0}
    - _DetailNormalMap:
        m_Texture: {fileID: 0}
        m_Scale: {x: 1, y: 1}
        m_Offset: {x: 0, y: 0}
    - _EmissionMap:
        m_Texture: {fileID: 0}
        m_Scale: {x: 1, y: 1}
        m_Offset: {x: 0, y: 0}
    - _GrassTex:
        m_Texture: {fileID: 2800000, guid: d6a350dc059d24e16bace4b07f1a3abd, type: 3}
        m_Scale: {x: 1, y: 1}
        m_Offset: {x: 0, y: 0}
    - _GrassWaveTex:
        m_Texture: {fileID: 2800000, guid: 2c82bc8236f623044a1b1ce66e08cf51, type: 3}
        m_Scale: {x: 1, y: 1}
        m_Offset: {x: 0, y: 0}
    - _MainTex:
        m_Texture: {fileID: 2800000, guid: d6a350dc059d24e16bace4b07f1a3abd, type: 3}
        m_Scale: {x: 1, y: 1}
        m_Offset: {x: 0, y: 0}
    - _MetallicGlossMap:
        m_Texture: {fileID: 0}
        m_Scale: {x: 1, y: 1}
        m_Offset: {x: 0, y: 0}
    - _OcclusionMap:
        m_Texture: {fileID: 0}
        m_Scale: {x: 1, y: 1}
        m_Offset: {x: 0, y: 0}
    - _ParallaxMap:
        m_Texture: {fileID: 0}
        m_Scale: {x: 1, y: 1}
        m_Offset: {x: 0, y: 0}
    m_Floats:
    - _BackLitStrength: 1
    - _BumpScale: 1
    - _Cutoff: 0.4
    - _DetailNormalMapScale: 1
    - _DstBlend: 0
    - _EffectBottomOffset: -1
    - _EffectTopOffset: 2
    - _FadeDistance: 26.2
    - _FadeDistanceEnd: 30
    - _FadeDistanceStart: 15
    - _FadeInDist: 35
    - _FadeInEndDist: 15
    - _FadeInOffset: 1
    - _FadeInRange: 5
    - _FadeInStartDist: 15
    - _FadeOutDist: 95.5025
    - _FadeOutEndDist: 25.5025
    - _FadeOutRange: 10
    - _FadeOutStartDist: 11
    - _FresnelStrength: 1
    - _Gloss: 1
    - _GlossMapScale: 1
    - _Glossiness: 0.5
    - _GlossyReflections: 1
    - _GravityMultiplier: 0.7
    - _LitFadeDist: 100
    - _LitFadeRange: 100
    - _Metallic: 0
    - _Mode: 0
    - _OcclusionStrength: 1
    - _OffsetStrength: 2
    - _Parallax: 0.02
    - _ShakeRate: 1
    - _ShakeSpeed: 30
    - _ShakeWindSpeed: 0
    - _Smoothness: 0.1
    - _SmoothnessTextureChannel: 0
    - _Specular: 0.3
    - _SpecularHighlights: 1
    - _SrcBlend: 1
    - _UVSec: 0
    - _WaveSpeed: 3
    - _WindDirRate: 1
    - _WindStrength: 1.5
    - _ZWrite: 1
    m_Colors:
    - _Color: {r: 1, g: 1, b: 1, a: 1}
    - _EmissionColor: {r: 0, g: 0, b: 0, a: 1}
    - _GrassColorBottom: {r: 0.20314628, g: 0.4352941, b: 0.039215688, a: 1}
    - _GrassColorTop: {r: 0.2865874, g: 0.517647, b: 0.05098036, a: 1}
    - _ShadowColor: {r: 0.17755425, g: 0.35849056, b: 0.27946985, a: 1}
