%YAML 1.1
%TAG !u! tag:unity3d.com,2011:
--- !u!114 &-293496069196762008
MonoBehaviour:
  m_ObjectHideFlags: 11
  m_CorrespondingSourceObject: {fileID: 0}
  m_PrefabInstance: {fileID: 0}
  m_PrefabAsset: {fileID: 0}
  m_GameObject: {fileID: 0}
  m_Enabled: 1
  m_EditorHideFlags: 0
  m_Script: {fileID: 11500000, guid: d0353a89b1f911e48b9e16bdc9f2e058, type: 3}
  m_Name: 
  m_EditorClassIdentifier: 
  version: 4
--- !u!21 &2100000
Material:
  serializedVersion: 6
  m_ObjectHideFlags: 0
  m_CorrespondingSourceObject: {fileID: 0}
  m_PrefabInstance: {fileID: 0}
  m_PrefabAsset: {fileID: 0}
  m_Name: Hero01
  m_Shader: {fileID: 4800000, guid: 933532a4fcc9baf4fa0491de14d08ed7, type: 3}
  m_ShaderKeywords: _SMOOTHNESS_TEXTURE_ALBEDO_CHANNEL_A
  m_LightmapFlags: 4
  m_EnableInstancingVariants: 0
  m_DoubleSidedGI: 0
  m_CustomRenderQueue: 2000
  stringTagMap:
    RenderType: Opaque
  disabledShaderPasses: []
  m_SavedProperties:
    serializedVersion: 3
    m_TexEnvs:
    - _BaseMap:
        m_Texture: {fileID: 0}
        m_Scale: {x: 1, y: 1}
        m_Offset: {x: 0, y: 0}
    - _BumpMap:
        m_Texture: {fileID: 0}
        m_Scale: {x: 1, y: 1}
        m_Offset: {x: 0, y: 0}
    - _CoverBaseMap:
        m_Texture: {fileID: 0}
        m_Scale: {x: 1, y: 1}
        m_Offset: {x: 0, y: 0}
    - _CoverBumpMap:
        m_Texture: {fileID: 0}
        m_Scale: {x: 1, y: 1}
        m_Offset: {x: 0, y: 0}
    - _CoverMixMap:
        m_Texture: {fileID: 0}
        m_Scale: {x: 1, y: 1}
        m_Offset: {x: 0, y: 0}
    - _DetailAlbedoMap:
        m_Texture: {fileID: 0}
        m_Scale: {x: 1, y: 1}
        m_Offset: {x: 0, y: 0}
    - _DetailMask:
        m_Texture: {fileID: 0}
        m_Scale: {x: 1, y: 1}
        m_Offset: {x: 0, y: 0}
    - _DetailNormalMap:
        m_Texture: {fileID: 0}
        m_Scale: {x: 1, y: 1}
        m_Offset: {x: 0, y: 0}
    - _EmissionMap:
        m_Texture: {fileID: 0}
        m_Scale: {x: 1, y: 1}
        m_Offset: {x: 0, y: 0}
    - _GrassWaveTex:
        m_Texture: {fileID: 0}
        m_Scale: {x: 1, y: 1}
        m_Offset: {x: 0, y: 0}
    - _MainTex:
        m_Texture: {fileID: 0}
        m_Scale: {x: 1, y: 1}
        m_Offset: {x: 0, y: 0}
    - _MetallicGlossMap:
        m_Texture: {fileID: 0}
        m_Scale: {x: 1, y: 1}
        m_Offset: {x: 0, y: 0}
    - _MixMap:
        m_Texture: {fileID: 2800000, guid: 99b2ea0ccd41dd14c80bc146842375ae, type: 3}
        m_Scale: {x: 1, y: 1}
        m_Offset: {x: 0, y: 0}
    - _OcclusionMap:
        m_Texture: {fileID: 0}
        m_Scale: {x: 1, y: 1}
        m_Offset: {x: 0, y: 0}
    - _ParallaxMap:
        m_Texture: {fileID: 0}
        m_Scale: {x: 1, y: 1}
        m_Offset: {x: 0, y: 0}
    - _PlanarReflectionTexture:
        m_Texture: {fileID: 0}
        m_Scale: {x: 1, y: 1}
        m_Offset: {x: 0, y: 0}
    - _RainNoiseMap:
        m_Texture: {fileID: 0}
        m_Scale: {x: 1, y: 1}
        m_Offset: {x: 0, y: 0}
    - _RampSampler:
        m_Texture: {fileID: 0}
        m_Scale: {x: 1, y: 1}
        m_Offset: {x: 0, y: 0}
    - _RimLightSampler:
        m_Texture: {fileID: 2800000, guid: e4a8c7c412321418ba6134e8f6743253, type: 3}
        m_Scale: {x: 1, y: 1}
        m_Offset: {x: 0, y: 0}
    - _SpecGlossMap:
        m_Texture: {fileID: 0}
        m_Scale: {x: 1, y: 1}
        m_Offset: {x: 0, y: 0}
    - _SpecularRamp:
        m_Texture: {fileID: 2800000, guid: a5895528fefdfdb42b401b9db8bbf960, type: 3}
        m_Scale: {x: 1, y: 1}
        m_Offset: {x: 0, y: 0}
    - _ToonCube:
        m_Texture: {fileID: 8900000, guid: 818dde455e37748d5a214a159ec73f81, type: 3}
        m_Scale: {x: 1, y: 1}
        m_Offset: {x: 0, y: 0}
    - _ToonShade:
        m_Texture: {fileID: 8900000, guid: 818dde455e37748d5a214a159ec73f81, type: 3}
        m_Scale: {x: 1, y: 1}
        m_Offset: {x: 0, y: 0}
    - _WaveTex:
        m_Texture: {fileID: 0}
        m_Scale: {x: 1, y: 1}
        m_Offset: {x: 0, y: 0}
    m_Floats:
    - _AlphaClip: 0
    - _BackgroundDistort: 0.2
    - _Blend: 0
    - _BumpScale: 1
    - _CoverDensity: 1
    - _Cull: 2
    - _Cutoff: 1
    - _DepthFactor: 1
    - _DetailNormalMapScale: 1
    - _DotDensity: 0.5
    - _DotScale: 2
    - _DotStrength: 1
    - _DotWidth: 2
    - _DstBlend: 0
    - _EnvironmentReflections: 1
    - _EqualWidthRate: 1
    - _FadeInDist: 5
    - _FadeInRange: 5
    - _FadeOutDist: 15
    - _FadeOutRange: 10
    - _FoamFactor: 1
    - _FoamStrength: 0.5
    - _FresnelStrength: 0.3
    - _Gloss: 0.5
    - _GlossMapScale: 1
    - _Glossiness: 0.5
    - _GlossinessSource: 0
    - _GlossyReflections: 1
    - _HaloSpecularStrength: 1
    - _HeightOffset: 1
    - _MaxRimWidth: 0.01
    - _Metallic: 0
    - _Mode: 0
    - _OcclusionStrength: 1
    - _OutlineWidth: 0
    - _Parallax: 0.02
    - _QueueOffset: 0
    - _ReceiveShadows: 1
    - _ReflDistort: 0.2
    - _ReflFadeDist: 100
    - _RimBrightness: 4.85
    - _RimIntensity: 1
    - _RimWidth: 0.08
    - _ShadowThreshold: 0.2
    - _ShakeRate: 1
    - _ShakeSpeed: 1
    - _Shininess: 0
    - _SketchDensity: 0.5
    - _SketchRimStrength: 0.5
    - _SketchScale: 2
    - _SketchStrength: 1
    - _SketchWidth: 2
    - _SlpashDist: 0.2
    - _Smoothness: 0
    - _SmoothnessSource: 0
    - _SmoothnessTextureChannel: 1
    - _SpecSource: 0
    - _Specular: 0
    - _SpecularHighlights: 1
    - _SpecularStrength: 0.5
    - _SrcBlend: 1
    - _Surface: 0
    - _TileScale: 1
    - _TransparencyDist: 2.08
    - _UVSec: 0
    - _UnlitThreshold: 0.2
    - _WaveSpeed: 6
    - _WindDirRate: 0.5
    - _WorkflowMode: 1
    - _ZWrite: 1
    m_Colors:
    - _BaseColor: {r: 1, g: 1, b: 1, a: 1}
    - _Color: {r: 1, g: 0.51404613, b: 0.13679248, a: 1}
    - _DayLightCol: {r: 1, g: 1, b: 1, a: 1}
    - _EmissionColor: {r: 0, g: 0, b: 0, a: 1}
    - _GrassColorBottom: {r: 1, g: 1, b: 1, a: 1}
    - _GrassColorTop: {r: 1, g: 1, b: 1, a: 1}
    - _MainColor: {r: 1, g: 0.59148073, b: 0.2205882, a: 1}
    - _NightLightCol: {r: 0.504717, g: 0.78396714, b: 1, a: 1}
    - _OutlineColor: {r: 0, g: 0, b: 0, a: 1}
    - _RainColor: {r: 1, g: 1, b: 1, a: 1}
    - _RimColor: {r: 0.5019608, g: 0.5019608, b: 0.5019608, a: 1}
    - _ShadowColor: {r: 0.5, g: 0.5, b: 0.5, a: 1}
    - _SpecColor: {r: 0.19999996, g: 0.19999996, b: 0.19999996, a: 1}
    - _SunsetLightCol: {r: 0.5849056, g: 0.52139014, b: 0.493859, a: 1}
    - _Tint: {r: 1, g: 1, b: 1, a: 1}
    - _UnlitColor: {r: 0.754717, g: 0.754717, b: 0.754717, a: 1}
    - _WaterColorDeep: {r: 1, g: 1, b: 1, a: 1}
    - _WaterColorShallow: {r: 1, g: 1, b: 1, a: 1}
  m_BuildTextureStacks: []
