%YAML 1.1
%TAG !u! tag:unity3d.com,2011:
--- !u!21 &2100000
Material:
  serializedVersion: 6
  m_ObjectHideFlags: 0
  m_CorrespondingSourceObject: {fileID: 0}
  m_PrefabInstance: {fileID: 0}
  m_PrefabAsset: {fileID: 0}
  m_Name: TesselVolumeCloud
  m_Shader: {fileID: 4800000, guid: 441731fb47ef2d149b20067075916f81, type: 3}
  m_ShaderKeywords: 
  m_LightmapFlags: 4
  m_EnableInstancingVariants: 0
  m_DoubleSidedGI: 0
  m_CustomRenderQueue: -1
  stringTagMap: {}
  disabledShaderPasses: []
  m_SavedProperties:
    serializedVersion: 3
    m_TexEnvs:
    - _BaseMap:
        m_Texture: {fileID: 0}
        m_Scale: {x: 1, y: 1}
        m_Offset: {x: 0, y: 0}
    - _BumpMap:
        m_Texture: {fileID: 0}
        m_Scale: {x: 1, y: 1}
        m_Offset: {x: 0, y: 0}
    - _CoverBaseMap:
        m_Texture: {fileID: 0}
        m_Scale: {x: 1, y: 1}
        m_Offset: {x: 0, y: 0}
    - _CoverBumpMap:
        m_Texture: {fileID: 0}
        m_Scale: {x: 1, y: 1}
        m_Offset: {x: 0, y: 0}
    - _CoverMixMap:
        m_Texture: {fileID: 0}
        m_Scale: {x: 1, y: 1}
        m_Offset: {x: 0, y: 0}
    - _EmissionMap:
        m_Texture: {fileID: 0}
        m_Scale: {x: 1, y: 1}
        m_Offset: {x: 0, y: 0}
    - _MainTex:
        m_Texture: {fileID: 0}
        m_Scale: {x: 1, y: 1}
        m_Offset: {x: 0, y: 0}
    - _MetallicGlossMap:
        m_Texture: {fileID: 0}
        m_Scale: {x: 1, y: 1}
        m_Offset: {x: 0, y: 0}
    - _MixMap:
        m_Texture: {fileID: 0}
        m_Scale: {x: 1, y: 1}
        m_Offset: {x: 0, y: 0}
    - _NoiseTexture:
        m_Texture: {fileID: 11700000, guid: 4ed99a7ccafd728408a1bd580f472384, type: 2}
        m_Scale: {x: 1, y: 1}
        m_Offset: {x: 0, y: 0}
    - _OcclusionMap:
        m_Texture: {fileID: 0}
        m_Scale: {x: 1, y: 1}
        m_Offset: {x: 0, y: 0}
    - _RainNoiseMap:
        m_Texture: {fileID: 0}
        m_Scale: {x: 1, y: 1}
        m_Offset: {x: 0, y: 0}
    - _SpecGlossMap:
        m_Texture: {fileID: 0}
        m_Scale: {x: 1, y: 1}
        m_Offset: {x: 0, y: 0}
    m_Floats:
    - _AlphaClip: 0
    - _BackSssStrength: 1
    - _BackSubsurfaceDistortion: 0.904
    - _Blend: 0
    - _BlendDepthFactor: 1
    - _BumpScale: 1
    - _CoverDensity: 1
    - _Cull: 2
    - _Cutoff: 0.5
    - _DeformStrength: 5
    - _DepthFactor: 0.2
    - _DstBlend: 0
    - _EnvironmentReflections: 1
    - _FrontSssIntensity: 0.2
    - _FrontSubsurfaceDistortion: 0.5
    - _GlossMapScale: 0
    - _Glossiness: 0
    - _GlossyReflections: 0
    - _HardNormal: 0
    - _Height: 1
    - _InteractiveDist: 2
    - _InteractiveStrength: 2
    - _InteriorColorPower: 3.26
    - _MarchingStep: 0.1
    - _Metallic: 0
    - _NoiseTile: 0.02
    - _OcclusionStrength: 1
    - _QueueOffset: 0
    - _RandomHeight: 1
    - _RandomWidth: 1
    - _ReceiveShadows: 1
    - _ShowWireframe: 0.406
    - _SlpashDist: 0.2
    - _Smoothness: 0.5
    - _SmoothnessTextureChannel: 0
    - _SpecularHighlights: 1
    - _SrcBlend: 1
    - _Surface: 0
    - _TessDistMax: 100
    - _TessDistMin: 10
    - _TessUniform: 4
    - _TesselDistMax: 100
    - _TesselDistMin: 10
    - _TessellationUniform: 6
    - _Width: 1
    - _WindStrength: 1
    - _WireWidth: 1.61
    - _WorkflowMode: 1
    - _ZWrite: 1
    m_Colors:
    - _BaseColor: {r: 1, g: 1, b: 1, a: 1}
    - _CloudColor: {r: 0.3964934, g: 0.5482915, b: 0.6226415, a: 1}
    - _Color: {r: 1, g: 1, b: 1, a: 1}
    - _Color2: {r: 1, g: 1, b: 1, a: 1}
    - _EmissionColor: {r: 0, g: 0, b: 0, a: 1}
    - _InteriorColor: {r: 0.25591847, g: 0.5248397, b: 0.6698113, a: 1}
    - _RainColor: {r: 1, g: 1, b: 1, a: 1}
    - _SpecColor: {r: 0.19999996, g: 0.19999996, b: 0.19999996, a: 1}
    - _WireColor: {r: 1, g: 1, b: 1, a: 0.2}
--- !u!114 &5953421649162428451
MonoBehaviour:
  m_ObjectHideFlags: 11
  m_CorrespondingSourceObject: {fileID: 0}
  m_PrefabInstance: {fileID: 0}
  m_PrefabAsset: {fileID: 0}
  m_GameObject: {fileID: 0}
  m_Enabled: 1
  m_EditorHideFlags: 0
  m_Script: {fileID: 11500000, guid: d0353a89b1f911e48b9e16bdc9f2e058, type: 3}
  m_Name: 
  m_EditorClassIdentifier: 
  version: 1
